<?xml version="1.0" standalone="no"?>
<!DOCTYPE svg PUBLIC "-//W3C//DTD SVG 20010904//EN"
 "http://www.w3.org/TR/2001/REC-SVG-20010904/DTD/svg10.dtd">
<svg version="1.0" xmlns="http://www.w3.org/2000/svg"
 width="1000.000000pt" height="1000.000000pt" viewBox="0 0 1000.000000 1000.000000"
 preserveAspectRatio="xMidYMid meet">
<metadata>
Created by potrace 1.11, written by Peter Selinger 2001-2013
</metadata>
<g transform="translate(0.000000,1000.000000) scale(0.100000,-0.100000)"
fill="#000000" stroke="none">
<path d="M2570 9893 c-490 -36 -918 -181 -1312 -442 -164 -109 -290 -214 -434
-362 -134 -139 -213 -236 -316 -394 -211 -320 -356 -714 -410 -1115 -10 -75
-13 -609 -13 -2580 0 -2739 -4 -2537 61 -2827 222 -996 1029 -1785 2039 -1996
258 -54 133 -52 2815 -52 2682 0 2557 -2 2815 52 1010 211 1817 1000 2039
1996 65 290 61 88 61 2827 0 1971 -3 2505 -13 2580 -54 401 -199 795 -410
1115 -103 158 -182 255 -316 394 -421 432 -937 693 -1556 788 -107 16 -285 17
-2560 18 -1345 1 -2465 0 -2490 -2z m1031 -1985 c52 -15 113 -68 138 -121 20
-42 21 -57 21 -543 l0 -499 -24 -52 c-45 -95 -141 -140 -280 -131 -80 5 -128
25 -175 70 -69 67 -66 42 -69 588 -2 326 0 507 7 531 18 59 65 114 122 143 45
22 66 26 137 26 47 0 102 -5 123 -12z m3027 -17 c50 -25 91 -67 113 -116 17
-37 19 -76 19 -540 0 -466 -2 -503 -19 -540 -23 -49 -74 -99 -123 -119 -55
-23 -220 -21 -274 3 -49 23 -107 88 -122 140 -15 49 -17 979 -2 1032 13 48 75
118 124 140 59 27 232 27 284 0z m-3606 -848 l3 -398 26 -56 c68 -145 217
-219 439 -219 216 0 383 113 441 299 17 57 19 94 19 417 l0 354 1035 0 1035 0
0 -348 c0 -386 4 -423 63 -521 42 -69 106 -126 187 -165 64 -30 68 -31 216
-31 l150 0 75 37 c93 46 158 112 202 206 l32 67 3 378 3 377 342 0 c276 0 354
-3 402 -15 123 -32 228 -131 265 -252 20 -65 20 -85 20 -2417 0 -2596 5 -2404
-62 -2508 -40 -63 -89 -105 -168 -142 l-65 -31 -2675 0 -2675 0 -65 31 c-79
37 -128 78 -169 142 -65 102 -61 -73 -61 2513 0 2327 0 2347 20 2412 25 80 81
154 153 202 89 59 124 64 484 64 l322 1 3 -397z"/>
<path d="M2420 4190 l0 -1740 2590 0 2590 0 0 1740 0 1740 -2590 0 -2590 0 0
-1740z m2684 1123 c66 -34 463 -277 484 -297 72 -65 86 -177 34 -270 -18 -30
-32 -58 -32 -60 0 -2 26 -19 58 -36 31 -18 113 -70 181 -117 75 -51 130 -82
139 -78 8 3 147 89 308 191 161 102 308 190 328 195 85 23 184 -41 207 -133
l12 -50 -122 -247 c-162 -327 -162 -285 0 -612 109 -222 120 -249 114 -282 -9
-48 -41 -95 -85 -125 -29 -20 -45 -23 -95 -20 -59 4 -67 8 -370 200 l-309 196
-56 -40 c-30 -22 -97 -68 -149 -101 l-94 -61 86 -80 c47 -45 90 -91 96 -103
25 -50 11 -90 -82 -226 -26 -40 -51 -64 -75 -74 -64 -27 -91 -13 -239 120
-216 194 -192 178 -249 161 -393 -119 -784 -88 -1196 96 -261 117 -582 342
-788 554 -45 47 -54 61 -54 92 0 34 9 46 110 143 365 351 826 595 1236 654
l88 12 134 182 c74 100 146 189 160 199 70 45 153 52 220 17z"/>
<path d="M3794 4462 c-57 -27 -87 -73 -92 -141 -4 -65 19 -109 77 -148 66 -45
183 -20 232 48 32 46 34 144 3 185 -52 71 -140 93 -220 56z"/>
</g>
</svg>
